1 1 1
7 8 17
9 11 20
1 1 1
1 10 20
10 1 20
8 5 17
20 20 8
20 50 112
75 80 36
76 80 36
80 76 36
55 58 113
90 11 116
11 90 116
91 92 93
87 100 119
100 200 125
111 211 125
101 111 114
111 101 114
113 87 119
154 1 122
100 200 125
879 100 179
283 276 61
15 1 20
109 10 119
104 1 119
203 20 125
207 50 125
757 80 171
763 80 171
804 76 171
556 58 144
903 11 179
111 90 119
913 92 179
879 100 179
201 210 89
506 590 137
555 556 44
897 876 148
386 200 144
900 1000 174
1000 900 174
900 1000 174
7865 2836 262
2836 2766 173
9876 9786 211
2836 2766 173
9876 9786 211
5645 5654 130
7654 7363 239
10000 20000 279
10001 20001 279
98765 27635 351
23415 200 279
78651 28361 351
28362 27662 259
98763 97864 266
56455 56541 291
76540 73639 325
100000 200000 383
100015 200018 383
987652 276355 525
234155 2006 443
78651 28361 351
283623 276634 389
987622 978623 427
564542 565445 421
765453 736323 424
100000 20000 351
100011 200012 383
987653 276353 525
234153 2000 443
786513 283613 509
283621 276621 389
987636 97 525
564552 565413 421
765404 736395 424
10054 200 262
98 276 128
323415 42006 443
478651 528361 470
528362 627662 509
698763 897 509
756455 556541 509
999998 999999 259
128362 276634 443
298762 978623 525
356454 565445 470
746545 736323 424
150000 20000 375
150001 200012 383
938765 276353 525
223415 2000 386
738651 283613 509
268362 276621 407
978763 97 525
546455 565413 452
736540 736395 287
120054 200 354
948 276 179
342341 42006 443
447865 528361 470
562836 627662 509
669876 897 509
735645 556541 509
979999 999999 440
