1 10 20
100 200 125
201 210 89
900 1000 174
1 500 144
10 1009 179
1009 10 179
25 25 24
1 1 1
1 2 2
1 3 8
4 4 3
4 5 6
1 6 9
1 7 17
8 8 4
1 9 20
10 10 7
10 11 15
12 12 10
12 13 10
10 14 18
15 15 18
1 15 20
17 17 13
1 18 21
1 19 21
19 19 21
1 20 21
23 23 16
1 25 24
1 26 24
1 27 112
29 29 19
31 31 107
37 37 22
41 41 110
43 43 30
47 47 105
1 50 112
53 53 12
1 55 113
61 61 20
1 70 113
1 75 116
1 100 119
1 130 122
1 175 125
1 200 125
1 225 125
1 231 128
1 250 128
1 275 128
1 300 128
1 325 131
1 350 144
1 375 144
1 400 144
1 425 144
1 450 144
1 475 144
1 500 144
1 550 144
1 600 144
1 650 145
1 700 145
1 750 171
1 800 171
1 850 171
1 900 179
1 950 179
1 1000 179
1 2000 182
1 3000 217
1 4000 238
1 5000 238
1 6000 238
1 7000 262
1 8000 262
1 9000 262
1 10000 262
1 11000 268
1 12000 268
1 13000 268
1 14000 276
1 15000 276
1 16000 276
1 17000 276
1 18000 279
1 19000 279
1 20000 279
1 30000 308
1 40000 324
1 50000 324
1 60000 340
1 70000 340
1 80000 351
1 90000 351
1 100000 351
1 200000 383
1 400000 443
1 600000 470
1 800000 509
1 999999 525
